9e20976c681061e719a131ba4f973703  script-example.sh
8df730e22312d241d93f15b6cc238639bcd48707  script-example.sh
ef88f84db8069f5fa2afe106460869e9ea0347368377ad741bce42fab6b4cb0f  script-example.sh
a200500d8662db3d7d450321728eca3b9b50c453130b7e7375eee45e712f49ae97e2641d35f47d56f66aadaa2f5c9d8c96855b69ad319d5ecb772bb711339c28  script-example.sh
